Ap    center  cont      flux        eqw      core       gfwhm   lfwhm   Errcenter  Errcont   Errflux    Erreqw   Errcore    Errgfwhm     Errlfwhm
1  6911.425   3.027E-13 5.856E-13   -1.935   8.033E-14  6.848   0.         1.686   1.5E-14   3.5E-13     1.259   5.0E-14     4.519        0. 
2  6912.152   3.427E-13 2.349E-12   -6.855   2.966E-13  7.441   0.       0.39795   1.1E-14   3.3E-13     1.138   3.5E-14     1.203        0. 
3  6911.819   4.890E-13 4.033E-12   -8.248   5.709E-13  6.636   0.       0.28955   1.3E-14   3.7E-13    0.7984   4.2E-14    0.4459        0. 
4  6911.741   6.662E-13 7.363E-12   -11.05   1.056E-12  6.55    0.       0.12549   1.0E-14   2.5E-13    0.5261   4.2E-14    0.2606        0. 
5  6912.23    6.297E-13 9.708E-12   -15.42   1.366E-12  6.678   0.       0.10303   7.9E-15   3.3E-13    0.6915   3.4E-14    0.2706        0. 
6  6912.434   3.786E-13 3.644E-12   -9.626   5.556E-13  6.162   0.       0.23584   9.8E-15   2.7E-13    0.8177   3.7E-14    0.4721        0. 
7  6911.429   3.180E-13 6.446E-13   -2.027   1.066E-13  5.679   0.        1.4644   2.3E-14   4.0E-13     1.498   5.9E-14     2.713        0. 
8  6911.031   3.259E-13 2.268E-12   -6.96    3.432E-13  6.208   0.       0.22461   1.5E-14   3.8E-13     1.337   4.2E-14    0.7621        0. 
9  6910.981   4.475E-13 3.971E-12   -8.875   6.100E-13  6.116   0.       0.20215   1.0E-14   2.7E-13    0.6331   3.9E-14    0.4841        0. 
10 6911.206   4.578E-13 2.653E-12   -5.796   4.409E-13  5.654   0.       0.31543   8.1E-15   2.9E-13    0.6336   3.4E-14    0.5169        0. 
11 6911.486   3.291E-13 1.186E-12   -3.604   1.828E-13  6.095   0.       0.51025   1.3E-14   3.8E-13     1.372   5.3E-14     2.027        0. 
12 6910.846   2.521E-13 4.306E-13   -1.708   7.817E-14  5.175   0.        1.4355   2.1E-14   3.6E-13     1.711   5.6E-14     3.653        0. 
