
Jun  3 15:29 [science/sciGrism7.fits[*,2]]: eLARS1
    center      cont      flux       eqw      core     gfwhm     lfwhm
  6745.405 5.194E-21 3.000E-20    -5.776 2.592E-21     10.88        0.
    3.2529   4.9E-22   1.2E-20     3.066   1.4E-21     2.659        0. 
  6757.557 5.166E-21 7.889E-20    -15.27 6.814E-21     10.88        0.
    1.2031   4.9E-22   1.8E-20     3.723   1.5E-21     2.659        0. 
  6771.668 5.133E-21 1.221E-20    -2.379 1.055E-21     10.88        0.
    5.7329   4.9E-22   1.9E-20      4.32   2.1E-21     2.659        0. 

Jun  3 15:31 [science/sciGrism7.fits[*,3]]: eLARS1
    center      cont      flux       eqw      core     gfwhm     lfwhm
  3839.073 3.752E-21 4.031E-21    -1.075 1.453E-21     2.607        0.
    5.5259             1.8E-20     4.877   5.1E-21     3.604        0. 
  5006.562 8.278E-21 3.378E-20    -4.081 3.233E-21     9.816        0.
    2.6836             1.3E-20     1.607   1.3E-21     4.235        0. 
  5150.459 8.144E-21 5.546E-20     -6.81 2.389E-21     21.81        0.
    4.0176             2.2E-20     2.689   8.9E-22     9.658        0. 
  5157.264 9.286E-21 7.914E-21   -0.8523 3.233E-21       2.3        0.
    1.3599             4.8E-21    0.5206   3.3E-21     1.739        0. 
# Somewhat questionable --^
  6742.525 6.269E-21 6.243E-20    -9.958 7.572E-21     7.746        0.
   0.63477   4.0E-22   9.4E-21     2.159   1.3E-21    0.4128        0. 
  6756.933 6.395E-21 2.531E-19    -39.57 3.069E-20     7.746        0.
   0.11816   4.0E-22   1.2E-20     4.137   1.3E-21    0.4128        0. 
  6778.286 6.582E-21 5.266E-20    -8.001 6.387E-21     7.746        0.
   0.51465   4.1E-22   8.6E-21     1.482   1.2E-21    0.4128        0. 

Jun  3 15:35 [science/sciGrism7.fits[*,4]]: eLARS1
    center      cont      flux       eqw      core     gfwhm     lfwhm
  3837.354 3.564E-21 1.834E-20    -5.148 2.576E-21      6.69        0.
    1.9319             1.4E-20     3.956   2.0E-21     4.947        0. 
  5004.563 9.766E-21 6.722E-20    -6.883 8.058E-21     7.837        0.
   0.61475             1.0E-20     1.043   1.3E-21     1.385        0. 
  5111.922 9.965E-21 4.049E-20    -4.063 2.287E-21     16.63        0.
    3.9751             2.4E-20     2.422   1.5E-21     12.51        0. 
  5154.623 1.020E-20 3.355E-20    -3.289 3.517E-21      8.96        0.
    1.9614             1.6E-20     1.549   1.6E-21     5.174        0. 
    center      cont      flux       eqw      core     gfwhm     lfwhm
  6740.757 7.811E-21 1.111E-19    -14.23 1.221E-20     8.552        0.
   0.50684   4.7E-22   9.8E-21     1.879   9.5E-22    0.2327        0. 
  6755.748 7.964E-21 5.191E-19    -65.18 5.703E-20     8.552        0.
   0.08838   4.7E-22   1.5E-20        5.   1.1E-21    0.2327        0. 
  6776.616 8.178E-21 1.293E-19    -15.81 1.420E-20     8.552        0.
   0.41016   4.7E-22   1.1E-20     2.077   1.1E-21    0.2327        0. 

Jun  3 15:36 [science/sciGrism7.fits[*,5]]: eLARS1
    center      cont      flux       eqw      core     gfwhm     lfwhm
  3837.354 4.321E-21 4.492E-20     -10.4 5.028E-21     8.393        0.
     1.012             1.2E-20     2.887   1.4E-21     2.354        0. 
  5004.333 1.372E-20 1.859E-19    -13.54 2.424E-20     7.202        0.
   0.19189             1.0E-20     0.745   1.3E-21    0.3438        0. 
  5106.057 1.495E-20 4.036E-20      -2.7 4.175E-21     9.081        0.
    1.4761             1.4E-20    0.9519   1.4E-21      3.46        0. 
  5154.997 1.550E-20 9.156E-20    -5.908 9.497E-21     9.057        0.
   0.70215             1.1E-20    0.7267   1.1E-21     1.303        0. 
    center      cont      flux       eqw      core     gfwhm     lfwhm
  6741.441 1.563E-20 1.982E-19    -12.68 2.392E-20     7.786        0.
   0.25439   2.5E-22   1.1E-20    0.6705   1.2E-21    0.0763        0. 
  6755.274 1.588E-20 1.213E-18    -76.41 1.464E-19     7.786        0.
   0.03369   2.4E-22   1.2E-20     1.606   1.2E-21    0.0763        0. 
  6776.816 1.626E-20 2.876E-19    -17.68 3.470E-20     7.786        0.
   0.13721   2.5E-22   9.2E-21    0.7373   9.7E-22    0.0763        0. 

Jun  3 15:37 [science/sciGrism7.fits[*,6]]: eLARS1
    center      cont      flux       eqw      core     gfwhm     lfwhm
  3838.408 4.315E-21 8.736E-20    -20.25 9.469E-21     8.668        0.
   0.52148             1.2E-20     2.857   1.1E-21     1.328        0. 
  5005.209 1.400E-20 3.649E-19    -26.06 5.074E-20     6.755        0.
   0.07959             8.7E-21    0.6181   1.4E-21    0.2118        0. 
  5105.797 1.531E-20 7.698E-20    -5.027 9.291E-21     7.784        0.
   0.54248             9.4E-21    0.6112   1.4E-21     1.147        0. 
  5155.269 1.586E-20 1.950E-19     -12.3 2.493E-20     7.346        0.
   0.19043             1.0E-20    0.6322   1.2E-21    0.4478        0. 
    center      cont      flux       eqw      core     gfwhm     lfwhm
  6741.596 1.379E-20 3.666E-19    -26.58 4.775E-20     7.212        0.
   0.10303   1.9E-22   7.4E-21    0.6886   9.1E-22   0.02835        0. 
  6756.068 1.422E-20 2.738E-18    -192.6 3.567E-19     7.212        0.
   0.01562   1.9E-22   9.6E-21     2.928   9.0E-22   0.02835        0. 
  6777.428 1.485E-20 6.616E-19    -44.56 8.618E-20     7.212        0.
   0.04687   1.9E-22   6.7E-21    0.7932   9.5E-22   0.02835        0. 

Jun  3 15:38 [science/sciGrism7.fits[*,7]]: eLARS1
    center      cont      flux       eqw      core     gfwhm     lfwhm
  3838.127 3.741E-21 2.869E-20    -7.669 3.426E-21     7.866        0.
    1.8601             1.2E-20     3.199   1.5E-21     4.402        0. 
  4497.542 8.198E-21 7.405E-21   -0.9034 1.180E-21     5.897        0.
    7.4473             1.8E-20     2.257   4.1E-21     6.071        0. 

Jun  3 15:39 [science/sciGrism7.fits[*,7]]: eLARS1
  5005.432 9.300E-21 8.755E-20    -9.415 1.133E-20     7.261        0.
   0.45947             9.2E-21     0.989   1.2E-21    0.8997        0. 
  5108.658 9.589E-21 2.997E-20    -3.125 2.379E-21     11.83        0.
    3.4189             1.5E-20     1.549   1.4E-21     8.172        0. 
  5155.748 9.852E-21 4.952E-20    -5.027 6.943E-21     6.701        0.
   0.67871             1.1E-20     1.122   1.6E-21     1.619        0. 
    center      cont      flux       eqw      core     gfwhm     lfwhm
  6742.397 7.438E-21 1.088E-19    -14.63 1.388E-20     7.364        0.
   0.32031   2.9E-22   8.0E-21     1.547   1.1E-21    0.1342        0. 
  6756.385 7.459E-21 6.842E-19    -91.73 8.729E-20     7.364        0.
   0.05469   2.9E-22   1.2E-20     4.518   1.4E-21    0.1342        0. 
     6778. 7.491E-21 1.727E-19    -23.06 2.204E-20     7.364        0.
   0.19971   2.9E-22   8.7E-21     1.855   1.2E-21    0.1342        0. 

Jun  3 15:40 [science/sciGrism7.fits[*,8]]: eLARS1
    center      cont      flux       eqw      core     gfwhm     lfwhm
  5006.535 7.990E-21 2.157E-20    -2.699 1.352E-21     14.99        0.
    7.8423             1.9E-20     2.343   1.2E-21      12.5        0. 
  5111.324 8.454E-21 1.510E-20    -1.786 7.828E-22     18.12        0.
    26.536             3.8E-20     4.545   2.2E-21     24.97        0. 
  5157.599 8.373E-21 2.153E-20    -2.571 2.215E-21     9.132        0.
    3.1631             1.3E-20     1.527   2.0E-21     7.109        0. 
    center      cont      flux       eqw      core     gfwhm     lfwhm
  6742.045 6.006E-21 3.992E-20    -6.647 4.507E-21     8.322        0.
    1.3784   3.2E-22   9.3E-21     1.731   1.1E-21    0.8326        0. 
  6755.817 5.996E-21 1.354E-19    -22.59 1.529E-20     8.322        0.
   0.28174   3.2E-22   1.1E-20     2.738   1.4E-21    0.8326        0. 
  6778.386 5.979E-21 3.916E-20    -6.551 4.421E-21     8.322        0.
    1.0029   3.2E-22   9.7E-21     1.899   1.1E-21    0.8326        0. 

Jun  3 15:41 [science/sciGrism7.fits[*,9]]: eLARS1
    center      cont      flux       eqw      core     gfwhm     lfwhm
  3836.934 3.720E-21 1.811E-20    -4.869 2.629E-21     6.473        0.
    2.2153             1.1E-20     3.027   2.1E-21      5.04        0. 
  5003.431 8.537E-21 5.142E-20    -6.023 6.930E-21      6.97        0.
   0.65381             9.2E-21     1.077   1.4E-21     1.286        0. 
  5106.667 8.734E-21 2.364E-20    -2.706 2.150E-21     10.33        0.
    6.2085             2.2E-20     2.506   2.1E-21     8.471        0. 
  6740.198 6.179E-21 4.603E-20     -7.45 5.745E-21     7.528        0.
   0.91504   2.5E-22   8.6E-21      1.39   1.0E-21     0.283        0. 
  6754.268 6.192E-21 3.274E-19    -52.87 4.085E-20     7.528        0.
   0.13135   2.5E-22   1.1E-20     3.668   1.1E-21     0.283        0. 
  6775.582 6.212E-21 5.385E-20    -8.668 6.720E-21     7.528        0.
   0.80664   2.5E-22   9.1E-21     1.735   1.2E-21     0.283        0. 

Jun  3 15:42 [science/sciGrism7.fits[*,10]]: eLARS1
    center      cont      flux       eqw      core     gfwhm     lfwhm
   3837.12 4.252E-21 3.857E-20    -9.071 5.660E-21     6.402        0.
   0.94678             1.2E-20     2.759   1.6E-21     2.533        0. 
  5003.939 1.225E-20 1.173E-19    -9.579 1.822E-20     6.049        0.
    0.2002             1.0E-20    0.8323   1.4E-21    0.5587        0. 
  5104.422 1.275E-20 5.019E-20    -3.937 6.567E-21     7.179        0.
   0.75732             9.9E-21     0.777   1.3E-21     1.735        0. 
  5153.965 1.334E-20 1.400E-19    -10.49 1.981E-20     6.638        0.
   0.19531             1.0E-20     0.762   1.2E-21    0.6572        0. 
  6740.276 9.775E-21 7.607E-20    -7.782 1.017E-20     7.028        0.
   0.50732   2.6E-22   9.2E-21    0.9291   1.3E-21   0.08849        0. 
   6754.61 9.824E-21 8.626E-19     -87.8 1.153E-19     7.028        0.
   0.03613   2.6E-22   1.1E-20     2.931   1.3E-21   0.08849        0. 
  6775.424 9.895E-21 1.857E-19    -18.77 2.483E-20     7.028        0.
   0.21289   2.5E-22   8.4E-21    0.9975   1.2E-21   0.08849        0. 

Jun  3 15:57 [science/sciGrism7.fits[*,11]]: eLARS1
    center      cont      flux       eqw      core     gfwhm     lfwhm
  3837.509 3.688E-21 2.270E-20    -6.154 2.752E-21     7.748        0.
    2.2212             1.1E-20     3.056   1.8E-21     4.839        0. 
  4493.214 9.554E-21 6.931E-21   -0.7254 8.088E-22     8.051        0.
    13.256             1.9E-20     1.945   3.4E-21     7.131        0. 

Jun  3 15:58 [science/sciGrism7.fits[*,11]]: eLARS1
  5004.617 1.154E-20 4.307E-20    -3.732 5.927E-21     6.827        0.
    0.7749             1.1E-20    0.9703   1.5E-21     2.004        0. 
  5106.321 1.237E-20 2.000E-20    -1.617 3.554E-21     5.287        0.
    1.1602             8.2E-21    0.6588   2.6E-21     3.212        0. 
  5154.265 1.216E-20 6.891E-20    -5.668 8.167E-21     7.927        0.
   0.54932             9.0E-21    0.7365   1.4E-21     1.326        0. 
    center      cont      flux       eqw      core     gfwhm     lfwhm
  6742.272 8.725E-21 4.318E-20    -4.949 4.885E-21     8.305        0.
   0.95801   3.1E-22   9.0E-21     1.215   1.2E-21    0.2685        0. 
  6755.881 8.895E-21 3.710E-19    -41.71 4.197E-20     8.305        0.
   0.12646   3.0E-22   1.2E-20     2.343   1.3E-21    0.2685        0. 
  6775.863 9.144E-21 1.148E-19    -12.55 1.298E-20     8.305        0.
   0.35937   2.8E-22   8.2E-21     1.162   1.1E-21    0.2685        0. 

Jun  3 15:59 [science/sciGrism7.fits[*,12]]: eLARS1
    center      cont      flux       eqw      core     gfwhm     lfwhm
  3835.396 3.467E-21 8.261E-21    -2.383 1.410E-21     5.506        0.
    6.8313             1.0E-20     2.874   3.2E-21     5.216        0. 
  4504.033 7.269E-21 9.679E-21    -1.331 4.799E-22     18.95        0.
    127.86             5.4E-19     74.76   3.6E-21     309.2        0. 

Jun  3 16:00 [science/sciGrism7.fits[*,12]]: eLARS1
  5006.909 8.332E-21 2.433E-20     -2.92 1.674E-21     13.65        0.
     5.041             1.6E-20     1.938   1.3E-21     10.49        0. 
  5104.281 8.584E-21 3.337E-20    -3.887 1.082E-21     28.96        0.
    23.671             7.2E-20     8.393   2.1E-21     27.67        0. 
  5006.961 8.388E-21 2.300E-20    -2.742 1.560E-21     13.85        0.
    4.5806             1.6E-20     1.914   1.9E-21     10.61        0. 
  5092.216 8.952E-21 6.067E-21   -0.6778 1.454E-21     3.919        0.
    3.7476             1.1E-20     1.208   3.9E-21     3.027        0. 
# NO!
    center      cont      flux       eqw      core     gfwhm     lfwhm
  5155.113 8.520E-21 3.320E-20    -3.897 3.352E-21     9.304        0.
    1.6826             1.3E-20     1.518   1.7E-21     3.594        0. 
    center      cont      flux       eqw      core     gfwhm     lfwhm
  6757.969 5.005E-21 1.150E-19    -22.97 8.680E-21     12.44        0.
   0.59717   2.8E-22   1.5E-20     3.819   1.0E-21     1.291        0. 
  6777.548 5.003E-21 6.826E-20    -13.64 5.154E-21     12.44        0.
    1.3184   2.8E-22   1.2E-20     3.063   9.5E-22     1.291        0. 

Jun  3 16:12 [science/sciGrism7.fits[*,4]]: eLARS1
    center      cont      flux       eqw      core     gfwhm     lfwhm
  3837.284 3.498E-21 1.947E-20    -5.568 2.597E-21     7.045        0.
    2.2737             1.1E-20     3.254   2.1E-21     5.221        0. 
  5004.516 1.001E-20 6.272E-20    -6.266 7.928E-21     7.432        0.
   0.65918             1.1E-20     1.076   1.3E-21      1.55        0. 
  5112.184 1.037E-20 3.087E-20    -2.978 1.849E-21     15.68        0.
    12.227             2.9E-20     2.835   1.4E-21      13.6        0. 
  5154.605 1.057E-20 2.736E-20    -2.589 3.175E-21     8.096        0.
    1.9243             1.3E-20     1.245   1.5E-21     4.404        0. 
  5111.431 1.019E-20 3.599E-20    -3.531 1.985E-21     17.03        0.
    4.6216             1.9E-20     1.911   1.2E-21     8.924        0. 
  5154.532 1.055E-20 2.745E-20    -2.603 3.202E-21     8.056        0.
    1.9194             1.2E-20     1.169   1.6E-21     3.877        0. 
# Those two --^
    center      cont      flux       eqw      core     gfwhm     lfwhm
  6740.825 8.341E-21 1.037E-19    -12.43 1.160E-20     8.398        0.
   0.44287   2.9E-22   1.1E-20     1.661   1.2E-21    0.2131        0. 
  6755.738 8.583E-21 5.066E-19    -59.02 5.667E-20     8.398        0.
   0.08936   2.9E-22   1.3E-20     3.198   1.0E-21    0.2131        0. 
   6776.63 8.923E-21 1.187E-19     -13.3 1.328E-20     8.398        0.
   0.36768   2.9E-22   8.0E-21     1.122   9.0E-22    0.2131        0. 

Jun  3 16:13 [science/sciGrism7.fits[*,5]]: eLARS1
    center      cont      flux       eqw      core     gfwhm     lfwhm
  3837.424 4.386E-21 4.367E-20    -9.956 4.990E-21     8.222        0.
     1.075             1.1E-20       2.4   1.3E-21     2.499        0. 
  5004.319 1.429E-20 1.769E-19    -12.38 2.385E-20     6.968        0.
   0.19238             9.3E-21    0.6478   1.3E-21    0.3864        0. 
  5105.627 1.536E-20 3.183E-20    -2.073 4.055E-21     7.375        0.
    1.2949             9.8E-21    0.6373   1.5E-21     2.608        0. 
  5155.052 1.601E-20 8.155E-20    -5.093 9.118E-21     8.403        0.
    0.5791             1.2E-20    0.7739   1.4E-21     1.361        0. 
    center      cont      flux       eqw      core     gfwhm     lfwhm
  6741.437 1.603E-20 1.935E-19    -12.07 2.337E-20     7.778        0.
   0.19873   2.4E-22   7.2E-21    0.6113   8.7E-22   0.07084        0. 
  6755.277 1.604E-20 1.210E-18    -75.49 1.462E-19     7.778        0.
   0.03418   2.4E-22   1.2E-20     1.496   1.2E-21   0.07084        0. 
  6776.721 1.604E-20 2.900E-19    -18.08 3.503E-20     7.778        0.
   0.13477   2.4E-22   9.1E-21    0.7664   1.2E-21   0.07084        0. 

Jun  3 16:14 [science/sciGrism7.fits[*,6]]: eLARS1
    center      cont      flux       eqw      core     gfwhm     lfwhm
  3838.447 4.320E-21 8.734E-20    -20.22 9.464E-21      8.67        0.
   0.55688             1.2E-20     2.768   1.3E-21     1.391        0. 
  5005.196 1.421E-20 3.618E-19    -25.46 5.058E-20     6.719        0.
   0.10986             1.0E-20    0.7174   1.3E-21    0.1919        0. 
  5105.802 1.562E-20 7.164E-20    -4.586 9.105E-21     7.392        0.
   0.50488             9.0E-21    0.5778   1.3E-21     1.149        0. 
  5155.287 1.658E-20 1.836E-19    -11.07 2.438E-20     7.072        0.
   0.16553             9.7E-21    0.5856   1.3E-21    0.4601        0. 
    center      cont      flux       eqw      core     gfwhm     lfwhm
  6741.666 1.509E-20 3.524E-19    -23.36 4.596E-20     7.202        0.
   0.09863   1.7E-22   6.7E-21    0.6709   8.1E-22   0.02711        0. 
  6756.049 1.474E-20 2.731E-18    -185.3 3.562E-19     7.202        0.
   0.01367   1.7E-22   1.1E-20     2.622   1.0E-21   0.02711        0. 
  6777.427 1.422E-20 6.681E-19    -46.98 8.714E-20     7.202        0.
   0.03955   1.8E-22   8.2E-21     0.893   1.0E-21   0.02711        0. 

Jun  3 16:15 [science/sciGrism7.fits[*,7]]: eLARS1
    center      cont      flux       eqw      core     gfwhm     lfwhm
  3838.161 3.843E-21 2.689E-20    -6.998 3.363E-21     7.512        0.
    1.6243             1.2E-20     3.226   1.8E-21     4.607        0. 
  4497.151 8.123E-21 8.399E-21    -1.034 1.197E-21      6.59        0.
    6.0425             1.5E-20      1.82   4.0E-21     5.687        0. 

Jun  3 16:16 [science/sciGrism7.fits[*,7]]: eLARS1
  5005.444 9.006E-21 9.230E-20    -10.25 1.155E-20     7.506        0.
   0.36328             1.0E-20      1.11   1.5E-21    0.9286        0. 
  5108.636 9.414E-21 3.606E-20    -3.831 2.497E-21     13.57        0.
     3.166             1.6E-20     1.699   1.2E-21     8.001        0. 
  5155.785 9.694E-21 5.194E-20    -5.358 7.063E-21     6.909        0.
   0.68701             1.1E-20     1.133   1.6E-21     1.732        0. 
    center      cont      flux       eqw      core     gfwhm     lfwhm
  6742.344 7.456E-21 1.086E-19    -14.57 1.390E-20     7.343        0.
   0.34814   3.0E-22   7.0E-21     1.183   9.5E-22     0.137        0. 
  6756.384 7.562E-21 6.824E-19    -90.25 8.731E-20     7.343        0.
   0.04346   3.0E-22   1.3E-20     4.007   1.3E-21     0.137        0. 
  6778.002 7.723E-21 1.699E-19      -22. 2.174E-20     7.343        0.
   0.21924   3.0E-22   8.8E-21     1.664   1.1E-21     0.137        0. 

Jun  3 16:17 [science/sciGrism7.fits[*,8]]: eLARS1
    center      cont      flux       eqw      core     gfwhm     lfwhm
  5006.581 7.992E-21 2.079E-20    -2.601 1.385E-21      14.1        0.
    10.676             2.5E-20     3.165   1.5E-21     18.45        0. 
    5111.1 8.337E-21 1.823E-20    -2.186 9.177E-22     18.66        0.
    19.645             3.5E-20     4.243   2.2E-21     17.47        0. 
  5157.433 8.301E-21 2.290E-20    -2.758 2.286E-21     9.408        0.
    2.7153             1.4E-20     1.647   1.6E-21      6.71        0. 
    center      cont      flux       eqw      core     gfwhm     lfwhm
  6742.117 5.755E-21 4.325E-20    -7.515 4.819E-21     8.431        0.
    1.1084   3.6E-22   1.0E-20     1.999   1.2E-21    0.8484        0. 
  6755.812 5.823E-21 1.386E-19     -23.8 1.544E-20     8.431        0.
   0.32617   3.6E-22   1.3E-20     3.378   1.4E-21    0.8484        0. 
  6778.395 5.936E-21 3.999E-20    -6.738 4.456E-21     8.431        0.
    1.2544   3.7E-22   1.1E-20     2.128   1.1E-21    0.8484        0. 
# All these are on boxcar smoothed 3 pixel --^

Jun  3 16:18 [science/sciGrism7.fits[*,9]]: eLARS1
    center      cont      flux       eqw      core     gfwhm     lfwhm
   3837.04 3.642E-21 1.951E-20    -5.357 2.661E-21     6.887        0.
    2.5288             1.0E-20     2.772   1.9E-21     4.479        0. 

Jun  3 16:19 [science/sciGrism7.fits[*,9]]: eLARS1
  5003.349 8.340E-21 5.490E-20    -6.583 7.064E-21     7.302        0.
   0.70166             9.4E-21     1.131   1.4E-21     1.479        0. 
  5154.009 8.555E-21 7.200E-20    -8.416 8.309E-21      8.14        0.
   0.62354             1.0E-20     1.184   1.1E-21     1.198        0. 
  5106.922 8.404E-21 3.394E-20    -4.038 2.397E-21      13.3        0.
    6.7334             2.6E-20     3.135   1.8E-21     11.36        0. 
    center      cont      flux       eqw      core     gfwhm     lfwhm
   6740.22 5.969E-21 4.848E-20    -8.123 6.008E-21     7.581        0.
   0.82275   2.6E-22   8.5E-21     1.598   1.1E-21    0.2835        0. 
  6754.273 6.030E-21 3.302E-19    -54.77 4.092E-20     7.581        0.
   0.13281   2.6E-22   9.1E-21     3.722   1.1E-21    0.2835        0. 
  6775.476 6.121E-21 5.497E-20     -8.98 6.812E-21     7.581        0.
   0.65234   2.6E-22   8.1E-21     1.532   9.1E-22    0.2835        0. 

Jun  3 16:20 [science/sciGrism7.fits[*,10]]: eLARS1
    center      cont      flux       eqw      core     gfwhm     lfwhm
  3837.156 4.046E-21 4.206E-20     -10.4 5.746E-21     6.877        0.
   0.92383             1.1E-20     2.786   1.7E-21     2.385        0. 
    center      cont      flux       eqw      core     gfwhm     lfwhm
    center      cont      flux       eqw      core     gfwhm     lfwhm
  5003.941 1.204E-20 1.202E-19    -9.978 1.838E-20     6.142        0.
   0.22363             9.2E-21    0.7614   1.6E-21    0.5201        0. 
  5104.316 1.305E-20 4.542E-20     -3.48 6.397E-21     6.669        0.
   0.84766             9.7E-21    0.7399   1.3E-21     1.693        0. 
  5153.982 1.339E-20 1.392E-19     -10.4 1.977E-20     6.618        0.
   0.24561             9.4E-21     0.702   1.4E-21     0.535        0. 
    center      cont      flux       eqw      core     gfwhm     lfwhm
  6740.259 9.846E-21 7.522E-20     -7.64 1.009E-20     7.004        0.
   0.37305   2.4E-22   6.9E-21    0.7283   9.4E-22   0.09553        0. 
  6754.608 1.002E-20 8.590E-19    -85.76 1.152E-19     7.004        0.
   0.03564   2.3E-22   9.5E-21     2.498   1.2E-21   0.09553        0. 
  6775.293 1.026E-20 1.815E-19    -17.68 2.435E-20     7.004        0.
   0.18408   2.4E-22   9.0E-21     1.029   1.2E-21   0.09553        0. 

Jun  3 16:42 [science/sciGrism7.fits[*,11]]: eLARS1
    center      cont      flux       eqw      core     gfwhm     lfwhm
  3837.374 3.678E-21 2.268E-20    -6.167 2.769E-21     7.695        0.
    2.1692             1.1E-20     3.049   1.8E-21     5.155        0. 
  4493.416 9.452E-21 9.319E-21   -0.9859 9.290E-22     9.424        0.
    14.192             2.5E-20      2.63   3.9E-21     8.913        0. 
  5004.599 1.161E-20 4.200E-20    -3.618 5.876E-21     6.715        0.
    1.0039             9.8E-21    0.8445   1.6E-21     1.879        0. 
  5106.181 1.242E-20 1.998E-20    -1.608 3.500E-21     5.363        0.
    1.4019             9.0E-21    0.7281   2.3E-21     3.362        0. 
  5154.319 1.219E-20 6.827E-20    -5.599 8.143E-21     7.876        0.
    0.5835             9.6E-21    0.7866   1.3E-21     1.326        0. 
    center      cont      flux       eqw      core     gfwhm     lfwhm
  6742.262 8.457E-21 4.630E-20    -5.475 5.140E-21     8.462        0.
   0.96533   2.8E-22   1.0E-20     1.267   1.2E-21    0.2808        0. 
  6755.889 8.470E-21 3.801E-19    -44.88 4.220E-20     8.462        0.
   0.12891   2.8E-22   1.0E-20     2.234   1.1E-21    0.2808        0. 
  6775.884 8.488E-21 1.243E-19    -14.64 1.380E-20     8.462        0.
    0.3457   2.9E-22   1.1E-20     1.699   1.1E-21    0.2808        0. 

Jun  3 16:43 [science/sciGrism7.fits[*,12]]: eLARS1
    center      cont      flux       eqw      core     gfwhm     lfwhm
  3835.626 3.496E-21 8.176E-21    -2.339 1.390E-21     5.527        0.
    7.3411             1.5E-20     4.191   4.1E-21     4.914        0. 
  5006.404 8.312E-21 2.490E-20    -2.996 1.700E-21     13.76        0.
    4.6196             1.7E-20     1.987   1.4E-21     11.18        0. 
  5104.543 8.781E-21 2.770E-20    -3.155 8.649E-22     30.09        0.
    35.783             7.5E-20     8.513   2.0E-21     30.61        0. 
   5155.21 8.502E-21 3.366E-20    -3.959 3.540E-21     8.931        0.
    1.7676             1.5E-20     1.807   1.3E-21     4.333        0. 
    center      cont      flux       eqw      core     gfwhm     lfwhm
  6757.929 5.003E-21 1.140E-19    -22.78 9.046E-21     11.84        0.
   0.55908   2.8E-22   1.4E-20      3.42   1.0E-21     1.331        0. 
  6777.286 5.096E-21 6.584E-20    -12.92 5.226E-21     11.84        0.
    1.2861   2.7E-22   1.1E-20     2.438   8.2E-22     1.331        0. 
